^C:\USERS\PC-YOUSSRA\APPFLUTTER\APP_UI_FOOD\BUILD\WINDOWS\CMAKEFILES\324C1766756655F48C2588E7B91893F7\INSTALL_FORCE.RULE
setlocal
cd .
if %errorlevel% neq 0 goto :cmEnd
:cmEnd
endlocal & call :cmErrorLevel %errorlevel% & goto :cmDone
:cmErrorLevel
exit /b %1
:cmDone
if %errorlevel% neq 0 goto :VCEnd
