^C:\USERS\PC-YOUSSRA\APPFLUTTER\APP_UI_FOOD\BUILD\WINDOWS\CMAKEFILES\EAD4B52D73270340172E998072AC69C4\FLUTTER_WINDOWS.DLL.RULE
^C:\USERS\PC-YOUSSRA\APPFLUTTER\APP_UI_FOOD\BUILD\WINDOWS\CMAKEFILES\B445DD9A5A4944BA8620E4E17E4598DD\FLUTTER_ASSEMBLE.RULE
C:\USERS\PC-YOUSSRA\APPFLUTTER\APP_UI_FOOD\WINDOWS\FLUTTER\EPHEMERAL\FLUTTER_WINDOWS.DLL
C:\USERS\PC-YOUSSRA\APPFLUTTER\APP_UI_FOOD\WINDOWS\FLUTTER\EPHEMERAL\FLUTTER_EXPORT.H
C:\USERS\PC-YOUSSRA\APPFLUTTER\APP_UI_FOOD\WINDOWS\FLUTTER\EPHEMERAL\FLUTTER_WINDOWS.H
C:\USERS\PC-YOUSSRA\APPFLUTTER\APP_UI_FOOD\WINDOWS\FLUTTER\EPHEMERAL\FLUTTER_MESSENGER.H
C:\USERS\PC-YOUSSRA\APPFLUTTER\APP_UI_FOOD\WINDOWS\FLUTTER\EPHEMERAL\FLUTTER_PLUGIN_REGISTRAR.H
C:\USERS\PC-YOUSSRA\APPFLUTTER\APP_UI_FOOD\WINDOWS\FLUTTER\EPHEMERAL\FLUTTER_TEXTURE_REGISTRAR.H
C:\USERS\PC-YOUSSRA\APPFLUTTER\APP_UI_FOOD\WINDOWS\FLUTTER\EPHEMERAL\CPP_CLIENT_WRAPPER\CORE_IMPLEMENTATIONS.CC
C:\USERS\PC-YOUSSRA\APPFLUTTER\APP_UI_FOOD\WINDOWS\FLUTTER\EPHEMERAL\CPP_CLIENT_WRAPPER\STANDARD_CODEC.CC
C:\USERS\PC-YOUSSRA\APPFLUTTER\APP_UI_FOOD\WINDOWS\FLUTTER\EPHEMERAL\CPP_CLIENT_WRAPPER\PLUGIN_REGISTRAR.CC
C:\USERS\PC-YOUSSRA\APPFLUTTER\APP_UI_FOOD\WINDOWS\FLUTTER\EPHEMERAL\CPP_CLIENT_WRAPPER\FLUTTER_ENGINE.CC
C:\USERS\PC-YOUSSRA\APPFLUTTER\APP_UI_FOOD\WINDOWS\FLUTTER\EPHEMERAL\CPP_CLIENT_WRAPPER\FLUTTER_VIEW_CONTROLLER.CC
^C:\USERS\PC-YOUSSRA\APPFLUTTER\APP_UI_FOOD\WINDOWS\FLUTTER\CMAKELISTS.TXT
C:\USERS\PC-YOUSSRA\APPFLUTTER\APP_UI_FOOD\WINDOWS\FLUTTER\EPHEMERAL\GENERATED_CONFIG.CMAKE
